%YAML 1.1
%TAG !u! tag:unity3d.com,2011:
--- !u!21 &2100000
Material:
  serializedVersion: 6
  m_ObjectHideFlags: 0
  m_CorrespondingSourceObject: {fileID: 0}
  m_PrefabInternal: {fileID: 0}
  m_Name: MKDemoMat6View1
  m_Shader: {fileID: 4800000, guid: 3f387b3c7760d5a488b5596b42425701, type: 3}
  m_ShaderKeywords: 
  m_LightmapFlags: 5
  m_EnableInstancingVariants: 0
  m_DoubleSidedGI: 0
  m_CustomRenderQueue: -1
  stringTagMap: {}
  disabledShaderPasses: []
  m_SavedProperties:
    serializedVersion: 3
    m_TexEnvs:
    - _MKGlowTex:
        m_Texture: {fileID: 2800000, guid: c43738b2b5ea39e488158498ed03aa6e, type: 3}
        m_Scale: {x: 1, y: 1}
        m_Offset: {x: 0, y: 0}
    - _MainTex:
        m_Texture: {fileID: 2800000, guid: d2bfdb919488ef040b6f7e30c6d08ebf, type: 3}
        m_Scale: {x: 1, y: 1}
        m_Offset: {x: 0, y: 0}
    m_Floats:
    - _MKGlowOffSet: 0
    - _MKGlowPower: 1.2232143
    - _MKGlowTexStrength: 10
    m_Colors:
    - _Color: {r: 1, g: 1, b: 1, a: 1}
    - _MKGlowColor: {r: 0.07364142, g: 1, b: 0, a: 1}
    - _MKGlowTexColor: {r: 1, g: 1, b: 1, a: 1}
