%YAML 1.1
%TAG !u! tag:unity3d.com,2011:
--- !u!1045 &1
EditorBuildSettings:
  m_ObjectHideFlags: 0
  serializedVersion: 2
  m_Scenes:
  - enabled: 1
    path: Assets/Menu/Menu.unity
    guid: 9ace21b58868bde46860cd4b25dcc0fb
  - enabled: 1
    path: Assets/Menu/Aboutus.unity
    guid: 2c9281aa9853a644d923cc68a36d5847
  - enabled: 1
    path: Assets/Scenes/LevelS/Level 0 - JumpALot.unity
    guid: 8245b7c952bf567469732be32644ac8f
  - enabled: 1
    path: Assets/Scenes/LevelS/Level 1 - Jumps.unity
    guid: 54bdf3641adacee4d8eaa1f38ce702f0
  - enabled: 1
    path: Assets/Scenes/LevelS/Level 2 - The Door Switch Dilemma.unity
    guid: 059f471e1c555404196108ac4e7ee5b7
  - enabled: 1
    path: Assets/Menu/Congratulations.unity
    guid: 30a02d4fdef077d4194e2f36cfebf2a4
  m_configObjects: {}
